…
So, to translate, values_from selects the data, id_cols defines the grouping you want to keep as row groups, and names_from is the grouping you want to translate to columns. Every column should fall in one of these categories.

Similarly, we can pivot back to a longer format by doing the reverse. We have a grouping variable fish and a data column for each station. We make groups of data using fish and station, then stack all the data back into a single column.

pivot_longer(wide_fishes, cols = -fish, names_to = "station", values_to = "seen")

## # A tibble: 209 x 3
##    fish  station  seen
##    <fct> <chr>   <int>
##  1 4842  Release     1
##  2 4842  I80_1       1
##  3 4842  Lisbon      1
##  4 4842  Rstr        1
##  5 4842  Base_TD     1
##  6 4842  BCE         1
##  7 4842  BCW         1
##  8 4842  BCE2        1
##  9 4842  BCW2        1
## 10 4842  MAE         1
## # … with 199 more rows
…
